<svg width="24" height="24" viewBox="0 0 24 24" fill="none" xmlns="http://www.w3.org/2000/svg">
<path fill-rule="evenodd" clip-rule="evenodd" d="M18.0482 7.625L19.6642 9.24106L11.9998 16.9054L4.33545 9.24106L5.95151 7.625L11.9998 13.6733L18.0482 7.625Z" fill="black"/>
</svg>
